<svg xmlns="http://www.w3.org/2000/svg" width="68.496" height="84.364" viewBox="0 0 68.496 84.364">
  <g id="Group_163" data-name="Group 163" transform="translate(-1691.763 -5064.211)">
    <g id="Group_162" data-name="Group 162" transform="translate(1697.612 5134.913)">
      <path id="Path_3642" data-name="Path 3642" d="M10.842,368.476a4.756,4.756,0,0,1-2.091,1.374,8.755,8.755,0,0,1-2.995.489,5.936,5.936,0,0,1-3.027-.753A5.025,5.025,0,0,1,.72,367.4a7.693,7.693,0,0,1-.726-3.369v-.9a8.174,8.174,0,0,1,.671-3.447A4.966,4.966,0,0,1,2.6,357.451a5.575,5.575,0,0,1,2.963-.771,5.552,5.552,0,0,1,3.7,1.128,4.821,4.821,0,0,1,1.58,3.282H8.176a2.653,2.653,0,0,0-.809-1.671,2.58,2.58,0,0,0-1.721-.53,2.429,2.429,0,0,0-2.127,1.05,5.522,5.522,0,0,0-.739,3.123v.849a5.255,5.255,0,0,0,.795,3.159A2.718,2.718,0,0,0,5.9,368.138a3.038,3.038,0,0,0,2.2-.658v-2.292H5.61v-2.018h5.232Z" transform="translate(0.005 -356.676)" fill="#009edb"/>
      <path id="Path_3643" data-name="Path 3643" d="M263.846,366.923h3.324l-1.671-4.976Zm4.063,2.219h-4.8l-.913,2.739h-2.913l4.948-13.294h2.538l4.977,13.294h-2.913Z" transform="translate(-234.435 -358.401)" fill="#009edb"/>
      <path id="Path_3644" data-name="Path 3644" d="M400.739,369.706h5.816v2.2H398V358.613h2.739Z" transform="translate(-359.86 -358.423)" fill="#009edb"/>
      <path id="Path_3645" data-name="Path 3645" d="M501.021,366.632a1.405,1.405,0,0,0-.548-1.192,7.19,7.19,0,0,0-1.972-.877,13.9,13.9,0,0,1-2.255-.908,3.683,3.683,0,0,1-2.265-3.3,3.21,3.21,0,0,1,.607-1.922,3.961,3.961,0,0,1,1.744-1.319,6.558,6.558,0,0,1,2.552-.475,5.973,5.973,0,0,1,2.538.516,4.042,4.042,0,0,1,1.73,1.456,3.809,3.809,0,0,1,.617,2.136H501.03a1.8,1.8,0,0,0-.575-1.42,2.368,2.368,0,0,0-1.616-.507,2.528,2.528,0,0,0-1.561.424,1.34,1.34,0,0,0-.557,1.119,1.282,1.282,0,0,0,.653,1.086,7.37,7.37,0,0,0,1.921.822,8.307,8.307,0,0,1,3.406,1.744,3.473,3.473,0,0,1,1.069,2.593,3.2,3.2,0,0,1-1.305,2.707,5.717,5.717,0,0,1-3.516.982,6.8,6.8,0,0,1-2.794-.561,4.421,4.421,0,0,1-1.922-1.539,3.941,3.941,0,0,1-.662-2.264h2.748q0,2.2,2.63,2.2a2.558,2.558,0,0,0,1.524-.4,1.292,1.292,0,0,0,.548-1.109" transform="translate(-446.273 -356.643)" fill="#009edb"/>
    </g>
    <path id="Path_3646" data-name="Path 3646" d="M139.615,381.893a3.782,3.782,0,0,1,.6-.77l-1.964-2.154A6.733,6.733,0,0,0,137,380.592Z" transform="translate(1573.738 4758.083)" fill="#56c02b"/>
    <path id="Path_3647" data-name="Path 3647" d="M214.5,367.984a3.761,3.761,0,0,1,.824.516l1.969-2.15a6.706,6.706,0,0,0-1.746-1.089Z" transform="translate(1503.667 4770.478)" fill="#dda83a"/>
    <path id="Path_3648" data-name="Path 3648" d="M236.932,400.38l-2.61,1.3a3.731,3.731,0,0,1,.261.922l2.9-.274a6.627,6.627,0,0,0-.555-1.95" transform="translate(1485.745 4738.724)" fill="#c5192d"/>
    <path id="Path_3649" data-name="Path 3649" d="M226.906,382.528l2.609-1.3a6.706,6.706,0,0,0-1.219-1.619l-1.969,2.149a3.8,3.8,0,0,1,.579.771" transform="translate(1492.974 4757.505)" fill="#4c9f38"/>
    <path id="Path_3650" data-name="Path 3650" d="M131.355,425.267c0-.058,0-.117,0-.176l-2.9-.26c-.009.144-.015.289-.015.436a6.69,6.69,0,0,0,.2,1.615l2.8-.8a3.781,3.781,0,0,1-.088-.81" transform="translate(1581.479 4716.616)" fill="#3f7e44"/>
    <path id="Path_3651" data-name="Path 3651" d="M221.879,454.28a3.809,3.809,0,0,1-.708.666l1.533,2.483a6.725,6.725,0,0,0,1.5-1.394Z" transform="translate(1497.636 4689.989)" fill="#fcc30b"/>
    <path id="Path_3652" data-name="Path 3652" d="M236.664,425.508a3.7,3.7,0,0,1-.086.8l2.8.805a6.654,6.654,0,0,0,.2-1.607c0-.138,0-.274-.013-.41l-2.9.275c0,.046,0,.09,0,.136" transform="translate(1483.705 4716.375)" fill="#ff3a21"/>
    <path id="Path_3653" data-name="Path 3653" d="M146.361,454.88l-2.321,1.764a6.723,6.723,0,0,0,1.515,1.373l1.533-2.48a3.833,3.833,0,0,1-.728-.658" transform="translate(1567.375 4689.446)" fill="#fd9d24"/>
    <path id="Path_3654" data-name="Path 3654" d="M131.915,402.091a3.717,3.717,0,0,1,.278-.935l-2.609-1.3a6.609,6.609,0,0,0-.576,1.975Z" transform="translate(1580.967 4739.198)" fill="#0a97d9"/>
    <path id="Path_3655" data-name="Path 3655" d="M210.575,466.087l-1.531-2.479a3.755,3.755,0,0,1-.893.363l.54,2.868a6.631,6.631,0,0,0,1.884-.752" transform="translate(1509.408 4681.555)" fill="#a21942"/>
    <path id="Path_3656" data-name="Path 3656" d="M231.567,441.98a3.786,3.786,0,0,1-.407.84l2.328,1.756a6.633,6.633,0,0,0,.881-1.79Z" transform="translate(1488.604 4701.11)" fill="#26bde2"/>
    <path id="Path_3657" data-name="Path 3657" d="M189.468,468.28a3.8,3.8,0,0,1-.543.04,3.739,3.739,0,0,1-.439-.026l-.54,2.868a6.718,6.718,0,0,0,2.062-.016Z" transform="translate(1527.677 4677.331)" fill="#fd6925"/>
    <path id="Path_3658" data-name="Path 3658" d="M200.68,362.657a3.714,3.714,0,0,1,.932.18l1.048-2.722a6.63,6.63,0,0,0-1.98-.375Z" transform="translate(1516.163 4775.47)" fill="#e5243b"/>
    <path id="Path_3659" data-name="Path 3659" d="M166.057,464.382a3.76,3.76,0,0,1-.925-.349l-1.534,2.481a6.668,6.668,0,0,0,1.92.734Z" transform="translate(1549.692 4681.171)" fill="#dd1367"/>
    <path id="Path_3660" data-name="Path 3660" d="M176.4,362.765a3.731,3.731,0,0,1,.952-.169V359.68a6.636,6.636,0,0,0-2.006.365Z" transform="translate(1539.07 4775.524)" fill="#19486a"/>
    <path id="Path_3661" data-name="Path 3661" d="M134.957,442.975a3.739,3.739,0,0,1-.444-.891l-2.8.8a6.668,6.668,0,0,0,.926,1.851Z" transform="translate(1578.524 4701.016)" fill="#bf8b2e"/>
    <path id="Path_3662" data-name="Path 3662" d="M155.266,368.311a3.8,3.8,0,0,1,.808-.489L155.02,365.1a6.677,6.677,0,0,0-1.719,1.053Z" transform="translate(1559.002 4770.62)" fill="#00689d"/>
    <path id="Path_3663" data-name="Path 3663" d="M5.713,192.144a.725.725,0,0,0-.273-.6,3.41,3.41,0,0,0-.961-.446,9.227,9.227,0,0,1-1.125-.446,2.129,2.129,0,0,1-1.42-1.917,1.718,1.718,0,0,1,.354-1.072,2.288,2.288,0,0,1,1-.723,3.9,3.9,0,0,1,1.456-.259,3.4,3.4,0,0,1,1.413.282,2.238,2.238,0,0,1,.971.8,2.089,2.089,0,0,1,.346,1.187H5.718a.884.884,0,0,0-.273-.693,1.07,1.07,0,0,0-.74-.246,1.2,1.2,0,0,0-.746.208.613.613,0,0,0,.028,1.039,3.785,3.785,0,0,0,1.059.471,6.486,6.486,0,0,1,1.245.525,2.093,2.093,0,0,1,1.185,1.882,1.784,1.784,0,0,1-.723,1.506,3.212,3.212,0,0,1-1.982.547,3.93,3.93,0,0,1-1.609-.318,2.428,2.428,0,0,1-1.084-.873,2.278,2.278,0,0,1-.364-1.278H3.479a1.121,1.121,0,0,0,.3.866,1.435,1.435,0,0,0,.986.279,1.133,1.133,0,0,0,.69-.188.619.619,0,0,0,.254-.529" transform="translate(1690.05 4924.394)" fill="#009edb"/>
    <path id="Path_3664" data-name="Path 3664" d="M65.9,187.55v4.784a2.749,2.749,0,0,1-.346,1.408,2.244,2.244,0,0,1-.994.906,3.5,3.5,0,0,1-1.531.311,3.026,3.026,0,0,1-2.1-.693,2.472,2.472,0,0,1-.783-1.9V187.55h1.772V192.4q.03,1.2,1.114,1.2a1.08,1.08,0,0,0,.828-.3,1.41,1.41,0,0,0,.281-.979V187.55Z" transform="translate(1638.359 4923.622)" fill="#009edb"/>
    <path id="Path_3665" data-name="Path 3665" d="M122.463,192.144a.725.725,0,0,0-.273-.6,3.41,3.41,0,0,0-.961-.446,9.227,9.227,0,0,1-1.125-.446,2.129,2.129,0,0,1-1.42-1.917,1.718,1.718,0,0,1,.354-1.072,2.287,2.287,0,0,1,1-.723,3.9,3.9,0,0,1,1.456-.259,3.4,3.4,0,0,1,1.413.282,2.238,2.238,0,0,1,.971.8,2.089,2.089,0,0,1,.346,1.187h-1.757a.884.884,0,0,0-.273-.693,1.07,1.07,0,0,0-.74-.246,1.2,1.2,0,0,0-.746.208.613.613,0,0,0,.028,1.039,3.786,3.786,0,0,0,1.059.471,6.486,6.486,0,0,1,1.245.525,2.093,2.093,0,0,1,1.185,1.882,1.784,1.784,0,0,1-.723,1.506,3.212,3.212,0,0,1-1.982.547,3.93,3.93,0,0,1-1.609-.318,2.428,2.428,0,0,1-1.084-.873,2.278,2.278,0,0,1-.364-1.278h1.766a1.121,1.121,0,0,0,.3.866,1.435,1.435,0,0,0,.986.279,1.133,1.133,0,0,0,.69-.188.619.619,0,0,0,.254-.529" transform="translate(1586.771 4924.394)" fill="#009edb"/>
    <path id="Path_3666" data-name="Path 3666" d="M180.01,188.9h-2.194v5.948h-1.762V188.9H173.9v-1.36h6.108Z" transform="translate(1537.729 4923.627)" fill="#009edb"/>
    <path id="Path_3667" data-name="Path 3667" d="M226.753,192.127h1.571l-.788-2.534Zm1.993,1.36h-2.414l-.422,1.366h-1.883l2.68-7.309h1.657l2.7,7.309h-1.892Z" transform="translate(1493.388 4923.627)" fill="#009edb"/>
    <path id="Path_3668" data-name="Path 3668" d="M293.314,194.855h-1.757v-7.308h1.757Z" transform="translate(1433.65 4923.625)" fill="#009edb"/>
    <path id="Path_3669" data-name="Path 3669" d="M324.389,194.855h-1.751l-2.59-4.548v4.548h-1.762v-7.308h1.762l2.585,4.548v-4.548h1.757Z" transform="translate(1410.005 4923.625)" fill="#009edb"/>
    <path id="Path_3670" data-name="Path 3670" d="M380.323,192.127h1.571l-.788-2.534Zm1.993,1.36H379.9l-.422,1.366H377.6l2.68-7.309h1.657l2.7,7.309h-1.892Z" transform="translate(1357.538 4923.627)" fill="#009edb"/>
    <path id="Path_3671" data-name="Path 3671" d="M445.844,191.754v1.751H447a1.1,1.1,0,0,0,.732-.218.765.765,0,0,0,.257-.615.811.811,0,0,0-.909-.919Zm0-1.155h.919a1.3,1.3,0,0,0,.823-.211.752.752,0,0,0,.246-.609.789.789,0,0,0-.266-.667,1.425,1.425,0,0,0-.858-.2h-.864Zm-1.762,4.262v-7.308h2.625a3.72,3.72,0,0,1,2.146.517,1.72,1.72,0,0,1,.735,1.5,1.739,1.739,0,0,1-.261.968,1.514,1.514,0,0,1-.768.592,1.541,1.541,0,0,1,.878.562,1.636,1.636,0,0,1,.306,1,1.935,1.935,0,0,1-.68,1.614,3.235,3.235,0,0,1-2.015.55Z" transform="translate(1298.725 4923.619)" fill="#009edb"/>
    <path id="Path_3672" data-name="Path 3672" d="M504.2,193.5h3.067v1.356h-4.828v-7.309H504.2Z" transform="translate(1247.099 4923.623)" fill="#009edb"/>
    <path id="Path_3673" data-name="Path 3673" d="M556.144,191.755h-2.771V193.5h3.273v1.355h-5.034v-7.308h5.044v1.36h-3.282v1.541h2.771Z" transform="translate(1203.603 4923.623)" fill="#009edb"/>
    <path id="Path_3674" data-name="Path 3674" d="M5.38,275.812v4.5h.6a1.344,1.344,0,0,0,1.141-.529,2.592,2.592,0,0,0,.4-1.571v-.31a2.57,2.57,0,0,0-.4-1.564,1.366,1.366,0,0,0-1.161-.526ZM3.654,281.64v-7.161H5.96a3.392,3.392,0,0,1,1.706.43,3.019,3.019,0,0,1,1.182,1.215,3.662,3.662,0,0,1,.43,1.758v.33a3.684,3.684,0,0,1-.415,1.762,3.035,3.035,0,0,1-1.171,1.22,3.316,3.316,0,0,1-1.684.445Z" transform="translate(1688.333 4846.724)" fill="#009edb"/>
    <path id="Path_3675" data-name="Path 3675" d="M62.625,278.607H60.09v1.711h3.026v1.328H58.364v-7.161h4.762v1.332H60.091v1.51h2.534Z" transform="translate(1639.936 4846.717)" fill="#009edb"/>
    <path id="Path_3676" data-name="Path 3676" d="M106.788,279.7l1.426-5.213h1.928l-2.41,7.16h-1.889l-2.39-7.16h1.913Z" transform="translate(1600.049 4846.717)" fill="#009edb"/>
    <path id="Path_3677" data-name="Path 3677" d="M170.175,278.607h-2.51v1.711h3v1.328h-4.728v-7.161h4.738v1.332h-3.012v1.51h2.51Z" transform="translate(1544.773 4846.717)" fill="#009edb"/>
    <path id="Path_3678" data-name="Path 3678" d="M213.779,280.313h2.732v1.328h-4.457V274.48h1.726Z" transform="translate(1503.981 4846.723)" fill="#009edb"/>
    <path id="Path_3679" data-name="Path 3679" d="M256.559,277.155a3.012,3.012,0,0,0-.356-1.62,1.145,1.145,0,0,0-1.02-.554q-1.3,0-1.372,1.948l-.005.526a3.092,3.092,0,0,0,.35,1.618,1.14,1.14,0,0,0,1.037.566,1.128,1.128,0,0,0,1.008-.556,3.017,3.017,0,0,0,.359-1.6Zm1.756.3a4.224,4.224,0,0,1-.389,1.854,2.872,2.872,0,0,1-1.1,1.242,3.074,3.074,0,0,1-1.63.435,3.116,3.116,0,0,1-1.623-.421,2.863,2.863,0,0,1-1.1-1.2,4.092,4.092,0,0,1-.416-1.8v-.4a4.244,4.244,0,0,1,.386-1.857,2.867,2.867,0,0,1,1.107-1.242,3.094,3.094,0,0,1,1.64-.438,3.06,3.06,0,0,1,1.622.433,2.91,2.91,0,0,1,1.109,1.232,4.127,4.127,0,0,1,.4,1.832Z" transform="translate(1468.599 4847.476)" fill="#009edb"/>
    <path id="Path_3680" data-name="Path 3680" d="M314,277.88h1.131a1.068,1.068,0,0,0,.765-.251.933.933,0,0,0,.263-.708,1.153,1.153,0,0,0-.271-.8.958.958,0,0,0-.738-.3H314Zm0,1.333v2.43h-1.727v-7.16h2.858a3.327,3.327,0,0,1,1.453.3,2.284,2.284,0,0,1,.979.861,2.352,2.352,0,0,1,.347,1.266,2.074,2.074,0,0,1-.75,1.675,3.113,3.113,0,0,1-2.058.627Z" transform="translate(1415.321 4846.721)" fill="#009edb"/>
    <path id="Path_3681" data-name="Path 3681" d="M368.882,274.479l1.6,4.982,1.593-4.982h2.273v7.161h-1.732v-1.672l.167-3.423-1.731,5.1H369.91l-1.736-5.1.167,3.427v1.672h-1.726v-7.161Z" transform="translate(1367.253 4846.724)" fill="#009edb"/>
    <path id="Path_3682" data-name="Path 3682" d="M444.537,278.607H442v1.711h3.034v1.328h-4.76v-7.161h4.77v1.332H442v1.51h2.542Z" transform="translate(1302.098 4846.717)" fill="#009edb"/>
    <path id="Path_3683" data-name="Path 3683" d="M492.543,281.685h-1.716l-2.537-4.455v4.455h-1.727v-7.161h1.727l2.532,4.455v-4.455h1.721Z" transform="translate(1261.146 4846.683)" fill="#009edb"/>
    <path id="Path_3684" data-name="Path 3684" d="M549.444,275.812h-2.15v5.828h-1.726v-5.828h-2.11v-1.333h5.985Z" transform="translate(1210.815 4846.724)" fill="#009edb"/>
    <path id="Path_3687" data-name="Path 3687" d="M205.553,16.463h2.575a13.477,13.477,0,0,1,3.713-8.947l-1.828-1.829a16,16,0,0,0-4.46,10.776M210.521,5.18l1.829,1.828A13.479,13.479,0,0,1,221.3,3.295V.72a16,16,0,0,0-10.776,4.46m11.135,8.711a2.9,2.9,0,0,0-.875.132c-.038.041-.065.074-.044.1.071.1.286-.113.316.087.021.144-.239.038-.216.144.02.086.2.05.2.167a.593.593,0,0,1-.2.376c-.116.075-.734.156-.792.3a1.065,1.065,0,0,1-.2.341c-.105.111-.6.4-.6.481,0,.18.238-.05.305-.12.105-.113.251-.111.41-.2.219-.125.3.313.069.328-.147.011-.271.422-.5.343-.057-.02-.221-.122-.257-.017s.343.129.461.207c.3.2-.23.186-.316.241s-.042.17.072.123.263-.162.332.026c.093.256-.421,1.189-.57,1.091-.083-.054-.167.023-.244.054a2.983,2.983,0,0,0,.379.589c.1-.167.262-.4.329-.4.095,0,.063-.078.1-.146s.158,0,.165-.107.292-.271.325-.433c.017-.087-.089-.174-.045-.248a.227.227,0,0,1,.147-.12c.057-.02.192.114.233.056s.24-.014.394.084c.069.044.2-.008.289.111.114.162-.006.176.015.212s.071-.02.1.009c.065.063-.3.277-.259.394s-.31.688-.406.78c-.132.12-.35-.015-.436.011s-.111.105-.254.071a.588.588,0,0,0-.364.075,2.913,2.913,0,0,0,1.93.729,2.816,2.816,0,0,0,.467-.039.869.869,0,0,0,.155-.425.708.708,0,0,1,.041-.265c.038-.063.277-.358.373-.353s.141.077.262.039c.234-.074.379-.012.382.09,0,.14-.295.1-.283.179.008.056.224.14.295.059a.372.372,0,0,0,.078-.388c-.093-.119-.087-.168.048-.122.083.029.081-.3.161-.425.108-.17-.2-.051-.328-.033s-.221-.241-.224-.331c0-.066.23.23.347.236a.319.319,0,0,0,.29-.259c0-.113-.253-.128-.292-.265-.021-.075.207,0,.189-.074s.024-.221-.12-.283-.275-.52-.389-.552-.186.11-.25.161-.161-.038-.108-.084a1.081,1.081,0,0,0,.28-.332c.06-.194.31.011.265-.262-.047-.293-.3-.238-.182-.379a.2.2,0,0,0-.212-.332c-.111.023-.228-.159-.241-.317-.008-.087-.256-.074-.246-.165.02-.186-.26-.206-.431-.194a.987.987,0,0,1-.541-.316c-.036-.065-.275.057-.2-.194s.313.044.41-.027a.162.162,0,0,0,.057-.215h-.057m.361-.7a3.664,3.664,0,0,1,.72.146c.062-.15.215-.224.341-.31.149-.1.257-.215.236.059a.533.533,0,0,1-.2.389,3.7,3.7,0,0,1,.715.413c.048.036.1.074.143.113l.248-.247a.088.088,0,0,1,0-.029c0-.14.207-.308.442-.41l.8-.8a.517.517,0,0,0-.062-.011c-.107-.014-.262.21-.365.149-.119-.069.353-.487.565-.406l.093.036.1-.1a6.2,6.2,0,0,0-3.779-1.569Zm0-3.3a6.93,6.93,0,0,1,4.288,1.78l1.822-1.82a9.488,9.488,0,0,0-6.11-2.536Zm0-3.295a10.171,10.171,0,0,1,5.829,2.083c-.185-.245-.371-.5-.458-.589-.158-.168-.749-.376-.688-.472s.585.323.676.25c.111-.089-.263-.571-.236-.589a2.469,2.469,0,0,1,.7.788c.092.135.334.068.522.2.165.116.177.3.316.422.023.02.319.189.147.17-.05-.006-.126-.111-.182-.057-.036.033.021.215.122.412l.855-.855c-.123-.253-.368-.585-.54-.627s-.284.105-.406.206-.274.135-.292.068a2.914,2.914,0,0,1,.015-.343c-.012-.1-.089-.176-.116-.271-.06-.224.03-.473-.105-.622a3.945,3.945,0,0,1-.367-.6,1.958,1.958,0,0,1-.371-.786,12.728,12.728,0,0,0-5.422-1.365Zm0-3.3A13.458,13.458,0,0,1,228.082,4.9a1.936,1.936,0,0,0,.457-.1c.23-.107.681.135.9.262.2.116.353.286.571.407a1.523,1.523,0,0,1,.66.848c.08.362.31.338.194.484-.057.074.032.1.141.167l1.79-1.79A15.994,15.994,0,0,0,222.017.72ZM233.3,5.688,231.394,7.6a6.453,6.453,0,0,0,.965,1.16c.191.194.392.385.562.556s1.2,1.457,1,1.644a.592.592,0,0,1-.047.041,13.563,13.563,0,0,1,1.309,5.467h2.575A15.987,15.987,0,0,0,233.3,5.688m4.458,11.5h-2.573a13.488,13.488,0,0,1-3.714,8.947L233.3,27.96a15.989,15.989,0,0,0,4.458-10.776m-12.273,5.2c.006.126-.122.026-.161.068a5.623,5.623,0,0,0,1.178.564,1.517,1.517,0,0,0,.708.023c.256-.05.326.068.445.063.17-.006.28-.236.379-.377.26-.371.21-.421.28-.479.089-.074.344.495.313.857-.006.057-.012.11-.021.161l.029.027a9.48,9.48,0,0,0,2.534-6.109h-1.957a4.322,4.322,0,0,1,.307.508c.1.2.158.528.323.543.269.026.544.248.553.434.015.389-1.2.484-1.354.434-.134-.042-.222-.051-.231.158-.009.238-.437.241-.6.382-.189.159-.21.451-.337.655a4.557,4.557,0,0,1-.645.628c-.29.2-.839.213-.588.349.179.095.585.129.534.035s.03-.119.1-.03c.053.068.243-.065.239-.186s-.029-.305.078-.313c.174-.011.358-.2.443-.186s.231.239.132.9a3.413,3.413,0,0,1-.544,1.339c-.137.224-.274.053-.458-.042a5.965,5.965,0,0,0-.831-.2c-.131-.042-.845-.313-.842-.213m.939-9.561a.633.633,0,0,1-.221-.042l-.6.6c.116.032.243-.012.388.053.159.071.081-.448.326-.4s.314.207.108.286c-.167.054.041.192-.159.262-.183.062.147.222.146.295,0,.1-.251.137.12.251s0-.311.057-.37c.068-.074.266.114.32.032.02-.03.056-.083.1-.144a6.208,6.208,0,0,0-.583-.822m2.21-2.473-1.822,1.822a6.823,6.823,0,0,1,.83,1.132,1.071,1.071,0,0,1,.7.361c.132.173.517.516.458.67-.036.095.044.212.132.274.134.093.228.092.3,0,.134-.171.153-.4.332-.549.218-.18.664.34.664.434s-.116.117-.149.286c-.045.23-.243.505-.018.583.328.111.368-.018.526-.248.072-.107.057-.278.135-.383a.706.706,0,0,1,.188-.138,9.534,9.534,0,0,0-.487-1.481.449.449,0,0,0-.176-.11c-.117-.038-.051-.143-.2-.192-.176-.056-.245-.105-.262-.415-.012-.25.21.081.266.039a.259.259,0,0,0,.035-.042,9.666,9.666,0,0,0-1.447-2.04m.657,6.077a.127.127,0,0,1-.02.033h1.9c-.009-.274-.033-.544-.065-.813-.015.029-.032.057-.045.084-.141.295-.162.117-.153-.011a1.925,1.925,0,0,1,.137-.484c-.015-.089-.03-.174-.048-.262a.655.655,0,0,1-.268.2c-.083.042-.162.239-.192.316s-.246-.023-.418.06c-.3.146-.609.167-.388.479.14.2-.337.141-.437.394m-.425,10.657c-.068.164-.412.458-.353.556a13,13,0,0,0,1.942-1.514l-1.82-1.82c-.128.119-.259.233-.392.346-.032.209,0,.371.254.451.277.086.738.367.64.639-.108.244-.379.609-.508.852-.111.206.32.295.238.49m1.956-1.607.141.141a12.762,12.762,0,0,0,3.5-8.439H231.89a10.2,10.2,0,0,1-2.746,6.618l.929.929a.317.317,0,0,0,.02-.039,1.526,1.526,0,0,0,.057-.525c.008-.1.362-.074.388.087a4.706,4.706,0,0,0,.215.574,1.031,1.031,0,0,1,.071.652m-1.634-15.64a.052.052,0,0,1-.021.03,10.451,10.451,0,0,1,1.142,1.485c.039-.05.069-.095.125-.032.09.1-.1.292.174.244.162-.03.129.177,0,.289.084.15.164.3.241.457.095.042.167.093.18.155a4.58,4.58,0,0,1,.147.582c.128.325.242.657.338,1,.132-.114.281-.053.3.137a1.143,1.143,0,0,1-.128.565,10.056,10.056,0,0,1,.207,1.715h2.576a12.893,12.893,0,0,0-1.09-4.833c-.051.041-.12.044-.206.153-.131.165-.341-.041-.457-.185-.216-.266-.725-1.015-.953-1.052-.191-.032-.334-.281-.535-.322s-.451-.153-.484-.367a.341.341,0,0,0-.337-.341.973.973,0,0,1-.606-.328l-.616.616a.08.08,0,0,1,.006.035m3.6,18.627-1.828-1.828a13.629,13.629,0,0,1-3.182,2.249,6.392,6.392,0,0,1-1.212.664,1.232,1.232,0,0,1-.479.155.284.284,0,0,1-.149-.047,13.457,13.457,0,0,1-3.925.691v2.575a15.99,15.99,0,0,0,10.774-4.46m-9.539-2.259a.4.4,0,0,0-.376-.065c-.418.113-.278-.219-.86-.134v.326a9.272,9.272,0,0,0,1.236-.128m-1.236.848v2.576a12.7,12.7,0,0,0,3.023-.449c-.2-.17-.293-.448-.541-.532-.428-.147-.544-.412-.313-.794.126-.206.077-.289-.071-.508a1.253,1.253,0,0,0-.577-.461,10.352,10.352,0,0,1-1.521.168m-.162-4.347c.274-.047.565-.125.812-.15.271-.027-.011.359.15.374.192.02.982.155,1.037-.026.047-.147.057-.213.227-.25a1.826,1.826,0,0,0,.843-.266c.1-.075.3-.1.358-.212s-.042-.636-.236-.55c-.1.042-.21.177-.413.28-.183.093-.314.135-.443-.041-.12-.158.069-.283.167-.389.15-.167.289-.334.457-.334.065,0,.412-.173.382-.331-.038-.2-.44.018-.535-.066-.065-.059,0-.206-.051-.227s-.2.18-.081.292c.06.057-.1.216-.272.1-.135-.09-.17.4-.158.492s.2.065.074.227-.17.042-.262.122c-.11.1-.135.134,0,.274.108.111-.063.323-.1.125-.026-.131-.3-.092-.355-.241s-.28-.138-.552-.278c-.207-.105-.18.207.17.287.3.069.283.1.2.29-.069.153-.056-.117-.41-.21-.227-.06-.238-.182-.416-.18s-.123.174-.314.129c-.146-.035-.168.161-.3.218-.162.071-.153.365-.319.446-.247.12-.752.03-.729-.215s.035-.427.176-.513c.125-.075.331.144.5.066s.135-.272.026-.4c-.033-.042-.165-.107-.162-.149s.262-.075.391-.164a3.4,3.4,0,0,0,.338-.373c.072-.056.212-.069.224-.122s-.1-.185-.087-.266.039-.141.1-.137.137.185.1.227.033.132.117.1.389-.153.477-.177c.12-.032-.029-.3.009-.35s.072.014.119-.032-.095-.092-.072-.191c.017-.074.334-.159.247-.216s-.2.108-.275.138c-.158.071-.234-.1-.23-.233,0-.063.09-.289.014-.332-.1-.06-.122.207-.138.259a.4.4,0,0,0,.024.4c.062.117.03.511-.092.555s-.186-.2-.247-.3a.1.1,0,0,0-.032-.036h0a.017.017,0,0,0-.015,0,.031.031,0,0,0-.018.008l0,0a.166.166,0,0,0-.018.023c-.011.015-.027.044-.039.066a.752.752,0,0,0-.054.126.114.114,0,0,1-.092.081,3.512,3.512,0,0,1-.4.024c-.051,0-.1,0-.156,0a1.235,1.235,0,0,0,.075.225c.072.135.209.245.185.344s-.439.189-.474.117c-.044-.092.105-.274.093-.356-.021-.15-.1-.241-.089-.346a3.643,3.643,0,0,1-1.95-.81l-1.823,1.823a6.2,6.2,0,0,0,3.281,1.521c.176-.108.25-.3.388-.2.222.168.49-.056.667-.086m-.558,3.442a2.714,2.714,0,0,1-1.04-.071c-.271-.188-.592-.371-.628-.516-.066-.259-.418-.451-.418-.693,0-.268.37-.356.272-.628-.08-.215.131-.487.516-.675a6.94,6.94,0,0,1-2.99-1.589l-1.825,1.825a9.444,9.444,0,0,0,6.113,2.531Zm0,.9a10.153,10.153,0,0,1-6.179-2.352,1.042,1.042,0,0,1,.1.138c.119.2.532.621.269.786-.218.138-.579.045-.782.042-.222,0-.547.331-.738.364a.958.958,0,0,1-.61-.069,1.073,1.073,0,0,1-.207-.125l-.29.29a12.762,12.762,0,0,0,8.439,3.5Zm0,3.3a13.487,13.487,0,0,1-8.947-3.713l-1.829,1.828a16,16,0,0,0,10.776,4.46ZM208.848,17.184a12.742,12.742,0,0,0,.7,3.824h.045a1.619,1.619,0,0,0,.776-.131c.254-.2.02-.9.177-1.187.2-.361.687-1.216.834-1.222.131-.006.125.092.191.108a10.156,10.156,0,0,1-.143-1.39Zm3.5-9.158a12.762,12.762,0,0,0-3.5,8.439h2.576a10.2,10.2,0,0,1,2.746-6.618ZM221.3,6.591V4.015a12.762,12.762,0,0,0-8.439,3.5l1.82,1.82A10.2,10.2,0,0,1,221.3,6.591m0,3.295V7.31a9.486,9.486,0,0,0-6.11,2.536l1.822,1.82a6.93,6.93,0,0,1,4.288-1.78m-2.462,7.926c0-.015,0-.032,0-.048a.04.04,0,0,0,0-.012c0-.014,0-.026,0-.038a.059.059,0,0,0,0-.017.12.12,0,0,0,0-.023.047.047,0,0,0,0-.014s0-.009,0-.014.008-.033.011-.05a.331.331,0,0,1,.012-.045l0-.014c0-.011.006-.02.009-.029s0-.009.006-.014a.133.133,0,0,1,.012-.026.065.065,0,0,1,0-.011.206.206,0,0,1,.02-.03.09.09,0,0,1,.092-.03,1.934,1.934,0,0,0,.222.054.178.178,0,0,0,.159-.075.49.49,0,0,0,.057-.092.244.244,0,0,0,.026-.087.077.077,0,0,0-.008-.033c-.014-.027-.05-.036-.123-.012-.015.006-.03.011-.045.015a.475.475,0,0,1-.089.015.2.2,0,0,1-.042,0,.139.139,0,0,1-.1-.06.148.148,0,0,1-.023-.044.384.384,0,0,0-.03-.056.536.536,0,0,0-.183-.141.719.719,0,0,1-.1-.072.383.383,0,0,1-.05-.05l-.038-.042-.017-.014a.181.181,0,0,0-.024-.024l-.02-.017-.023-.018-.023-.017-.02-.012L218.5,16.6l-.018-.009-.029-.014-.014,0a.278.278,0,0,0-.033-.011H218.4a.289.289,0,0,0-.263.092h0c-.014.014-.027.03-.041.047,0,0,0,0,0,0-.014.018-.027.036-.041.057l0,0a.436.436,0,0,0-.041.069,1.312,1.312,0,0,0-.081.177c-.209.549-.452.38-.412.576,0,.023.063.039.149.045.035,0,.074,0,.114,0s.084,0,.128,0,.09-.008.134-.012c.021,0,.044-.006.065-.011l.036-.006a.293.293,0,0,0,.036-.008l.03-.006.039-.011.023-.008a.351.351,0,0,0,.053-.02c.029-.014.057-.024.086-.035h0a.476.476,0,0,1,.08-.02.265.265,0,0,1,.143,0,.253.253,0,0,1,.131.1.5.5,0,0,1,.075.2m-1.825,3.151,1.823-1.825a3.612,3.612,0,0,1-.392-.585h0a.467.467,0,0,0-.068.1c-.038.081.012.353-.1.469-.146.152-.538-.331-.661-.371a.191.191,0,0,0-.239.186c.023.138-.006.194-.066.206s-.367-.2-.23-.248c.159-.06-.042-.2-.11-.251-.119-.092-.3-.006-.389-.128a.763.763,0,0,0-.322-.238.48.48,0,0,0-.334-.026c-.092.05-.191-.051-.26-.119-.039-.036-.077-.08-.117-.122a6.216,6.216,0,0,0,1.466,2.949m-2.626-5.123a.533.533,0,0,0-.514.239.52.52,0,0,0-.072.385h.921c.009-.174.026-.347.047-.517a1.087,1.087,0,0,0-.382-.107m1.787-1.962a.569.569,0,0,0,.075-.036,1.144,1.144,0,0,1,.9-.069,3.71,3.71,0,0,1,.645.449c.056.044.083-.038.349-.077.11-.017.135.095.293.117a.7.7,0,0,0,.164.008l-1.587-1.586a6.309,6.309,0,0,0-.837,1.193m.329-1.7-1.822-1.822a9.484,9.484,0,0,0-2.534,6.11h1.275c.215-.344.141-.606.213-.806a2.916,2.916,0,0,1,.286-.537c.095-.152.2-.322.4-.323.415,0,.519-.219.783-.34s.729-.192.676-.331c-.036-.093-.974.271-.994.2-.036-.123.3-.113.434-.238a.34.34,0,0,1,.081-.056,6.961,6.961,0,0,1,1.2-1.859m-4.425,13.106a.129.129,0,0,1-.026.011c.1.113.2.222.3.331l.206-.206c-.194-.122-.371-.2-.481-.135m.679-6.956c-.15-.173.1-.661.137-.758s.266-.233.334-.383h-1.082a9.744,9.744,0,0,0,.209,1.665c.26.095.759-.117.4-.525m1.518,4.343a.706.706,0,0,1-.014.15c.134.164.271.325.415.481l1.826-1.826a6.918,6.918,0,0,1-1.686-3.46.106.106,0,0,1-.134-.047c-.038-.063.017-.129.095-.194-.026-.194-.045-.389-.056-.588H213.5c.014.192.09.472-.038.568-.105.08-.254,0-.349.012-.233.032-.286.313-.224.505a.738.738,0,0,1,.074.367c-.021.129-.092.231.114.341.189.1.495.487.469.553-.032.086-.219-.081-.231.075-.008.1.277-.027.26.3a1.31,1.31,0,0,0,.093.525,1.61,1.61,0,0,1,.23.75,1.657,1.657,0,0,0,.057.764c.113.244.313.44.314.728m6.363-9.626c.018.029-.168.2-.265.362a3.687,3.687,0,0,1,.926-.215V10.608a6.193,6.193,0,0,0-3.779,1.569L219.34,14a3.742,3.742,0,0,1,.682-.443c.063-.032.128-.062.192-.089.125-.218.4-.461.421-.425M210.014,27.96l1.829-1.829a13.488,13.488,0,0,1-1.013-1.2.924.924,0,0,1-.383-.259c-.156-.194-.239-.479-.313-.479s-.006.18-.173.2c-.227.033-.546-.529-.67-.735-.147-.241-.389-.244-.508-.47-.035-.065-.116-.265-.192-.146-.125.2-.555-.439-.664-.4s-.014.177-.077.234c-.123.11-.485-.49-.621-.43s-.156.135-.164.295.2.589.126.622a2.93,2.93,0,0,1-.513-1.345c.065-.035.056.06.128.017s-.053-.137-.087-.281-.167-.155-.177-.32.225-.111.222-.192a.293.293,0,0,1,.086-.23c.078-.068.262,0,.3-.231.033-.2.134-.014.155.134.024.173.463.215.486.1.012-.075-.179-.072-.179-.138,0-.126.242-.006.407.009.072.006.2-.11.367-.026a1.337,1.337,0,0,0,.407.158,13.432,13.432,0,0,1-.664-3.842h-2.575a16,16,0,0,0,4.46,10.776m-5.183-11.137a16.818,16.818,0,1,1,4.926,11.9,16.718,16.718,0,0,1-4.926-11.9m9.47,1.966a3.545,3.545,0,0,0,.122-.809c-.02-.21-.132-.41-.161-.4s.018.147.024.353a2.866,2.866,0,0,1-.135.664c0,.095.092.311.15.188m.086.81c.01-.114,0-.448-.078-.513s-.069.057-.126.05-.041-.159-.1-.159.02.266.08.419.209.407.222.2m3.547.026c.074,0,.128-.265.083-.4s-.287-.032-.31.029.15.367.227.367m2.706-2.916c-.244-.063-.194.075-.343.092-.247.027-.027-.182-.149-.278-.053-.042-.2.168-.209.3-.006.063-.009.28.1.286s.654.071.837.111c.21.048-.008-.454-.233-.511m-.507-.325c.12,0,.116-.09.186-.087s.012.092.135.092.25-.313-.141-.313c-.319,0-.277.3-.18.308M220.7,19.3c-.02-.074-.146-.062-.114.006s-.039.134.027.218a.291.291,0,0,0,.362,0,.143.143,0,0,0-.021-.189c-.071-.035-.235.033-.254-.039m4.285-17.042c-.389-.177-1.853-.17-1.816.212.032.325.846.02,1.057,0s1.1-.036.759-.213m-1.756.884c-.289-.186-.047-.443-.278-.616a.727.727,0,0,0-.728.143c-.2.251.251.168.413.241.18.08.57.413.639.346s-.015-.083-.047-.113m6.627,1.9c.144.054.144-.215-.1-.413s-.567-.1-.479,0a2.913,2.913,0,0,0,.58.416m1.539,7.51c0,.081.23.643.254.8s.072.613.2.567c.078-.03.071-.313.054-.421a5.57,5.57,0,0,0-.233-.956c-.062-.191-.332-.815-.422-.792s.134.454.165.6c.021.092-.009.129-.014.21m-2.912-.024c-.134,0-.168.149-.039.213a.47.47,0,0,0,.323-.05c.089-.056.191-.125.171-.26-.011-.081-.2-.313-.1-.4s.218.054.323.014c.129-.05.117-.123.12-.233.006-.152-.056-.352-.231-.352-.131,0-.358.35-.368.371a.392.392,0,0,0,0,.3c.078.182.047.394-.2.4m2.148,5.6c-.155.006-.322.23-.275.233.111.006.2.086.286.066.164-.038.144-.305-.011-.3m-5.93-5.2c.074.039.4-.138.34-.186s-.443-.225-.451-.117c-.012.176.036.265.111.3m-.105.107c-.12-.063-.612.538-.534.634a2.261,2.261,0,0,0,.534-.634m-3.367,7.785c.123-.186-.185-.3-.266.02-.075.3.141.165.266-.02M203.434,7.072a.041.041,0,0,0,.026,0,.067.067,0,0,0,.014-.009c.3-.233,1.5-1.163,1.909-1.578a9.44,9.44,0,0,0,1.533-1.894,10.209,10.209,0,0,1,1.623-1.935c.053-.048.092-.08.144-.126a.091.091,0,0,0,.008-.074,7.926,7.926,0,0,0-3.071,1.485,7.635,7.635,0,0,0-2.183,4.116.045.045,0,0,1,0,.014m-2.274,4.191c0,.292-.006.54-.02.7v.014c0,.017.045-.014.045-.014l.012-.012a15,15,0,0,1,2.086-2.168c.6-.493,1.224-.965,1.781-1.5a5.594,5.594,0,0,0,1.363-2.668,1.026,1.026,0,0,0,.018-.129.1.1,0,0,0-.069.02c-.08.1-.159.206-.238.311a5.513,5.513,0,0,1-1.55,1.39,8.009,8.009,0,0,0-2.38,1.969.209.209,0,0,0-.014.02c-.027.048-.081.024-.065-.027.18-.583.257-.947.383-1.461a19.2,19.2,0,0,1,.616-2.712,3.769,3.769,0,0,1,.855-1.236A.013.013,0,0,0,204,3.749.129.129,0,0,0,204,3.67a1.061,1.061,0,0,0-.206.077A4.943,4.943,0,0,0,201.47,6.29a5.168,5.168,0,0,0-.386,2.124c0,.242.006.486.018.728.029.6.057,1.47.059,2.121M199.5,15.6c.281.8.655,1.986.738,2.291,0,.011.053-.012.06-.036a13.282,13.282,0,0,1,1.736-3.3c.041-.057.083-.111.125-.167a12.035,12.035,0,0,0,1.583-2.4c.266-.616.678-1.939.7-2.062,0,0-.015-.006-.035,0a.09.09,0,0,0-.068.014.14.14,0,0,0-.018.014.036.036,0,0,0-.009.012,9.733,9.733,0,0,1-1.6,1.78,5.915,5.915,0,0,0-1.825,2.019c-.05.1-.108.233-.167.376-.141.331-.281.724-.283.732,0,.026-.05.062-.065.014s.077-1.121.084-1.269A14.141,14.141,0,0,0,200.224,11a8.186,8.186,0,0,1,.051-3.286c.02-.086.045-.173.071-.26.018-.065.035-.116.056-.182,0-.011-.014-.062-.032-.069a8.446,8.446,0,0,0-1.521,5.93A22.988,22.988,0,0,0,199.5,15.6m1.879,8.282s0,0,0,0c.042-.032.039-.042.026-.141a7.237,7.237,0,0,1,.467-3.293,23.542,23.542,0,0,0,1.338-5.208c.024-.238.047-.6.041-.714-.015-.008-.065.024-.068.03A15.758,15.758,0,0,1,202,16.68a7.4,7.4,0,0,0-1.5,3.305,5.771,5.771,0,0,0,.021,1.066c0,.008-.012.041-.039.033a.034.034,0,0,1-.021-.024c-.08-.3-.171-.666-.287-1.057-.6-2.05-2.055-3.337-2.046-6.334,0-.014-.039-.066-.06-.066a3,3,0,0,0-.2.516,8.187,8.187,0,0,0,1.852,7.792c.481.586,1.261,1.4,1.662,1.975m.457,3.9c.869.58,2.186,1.357,2.648,1.652l.008,0s.032-.056.02-.087a.079.079,0,0,0-.006-.018,9.51,9.51,0,0,1-.764-3.642c-.087-1.09.113-2.45.056-3.507a11.72,11.72,0,0,0-.547-2.575.742.742,0,0,0-.044-.123c-.018,0-.048.041-.054.059s0,.006,0,.014c-.116,1.3-.58,2.453-.747,3.513a8.648,8.648,0,0,0,.272,3.753c.02.053-.033.065-.051.036a28.889,28.889,0,0,0-2.934-3.337,8.029,8.029,0,0,1-2.026-3.181c0-.008-.054-.044-.065-.039a.851.851,0,0,0-.012.168,7.975,7.975,0,0,0,1.454,4.643,10.243,10.243,0,0,0,2.794,2.668m7.147,5.742c.072.015.144.026.256.045a.014.014,0,0,0,.006-.009.125.125,0,0,0-.014-.045l-.069-.074a7.137,7.137,0,0,1-1.617-2.718c-.269-.741-.517-1.491-.777-2.235a12.932,12.932,0,0,0-2.1-3.819s-.01-.008-.012-.006a.1.1,0,0,0-.02.077,16.321,16.321,0,0,1,.469,2.97,7.662,7.662,0,0,0,1.718,4.164c.035.039,0,.078-.027.054-.057-.042-.1-.077-.161-.123a12.1,12.1,0,0,0-2.793-1.64,14.238,14.238,0,0,1-2.273-1.24A9.961,9.961,0,0,1,199.353,27a.085.085,0,0,0-.08-.011,6.266,6.266,0,0,0,.43,1.07,9.229,9.229,0,0,0,2.809,3.287A8.464,8.464,0,0,0,206.4,33c.867.144,1.724.35,2.585.529m.985,2.6a16.258,16.258,0,0,0,3.071-.571c.657-.176,1.938-.454,2.381-.555l.026-.006s.006,0,.006-.008a.2.2,0,0,0-.03-.051.115.115,0,0,0-.045-.021,7.723,7.723,0,0,1-3.247-1.656c-.7-.652-1.363-1.35-2.065-2-.565-.525-1.813-1.586-1.9-1.614a.092.092,0,0,0-.012.063c.182.245.839,1.738,1.24,2.5a4.685,4.685,0,0,0,2.482,2.4.052.052,0,0,1,.02.012c.026.027-.011.062-.09.048l-.021,0a34.855,34.855,0,0,0-3.8-.329,10.7,10.7,0,0,1-2.916-.436,5.647,5.647,0,0,1-1.852-.979.108.108,0,0,0-.086,0s0,.008,0,.011a7.376,7.376,0,0,0,6.836,3.2m24.8-34.467a10.265,10.265,0,0,1,1.623,1.935,9.439,9.439,0,0,0,1.533,1.894c.412.415,1.61,1.345,1.909,1.578a.072.072,0,0,0,.014.009.042.042,0,0,0,.026,0,.044.044,0,0,1,0-.014,7.635,7.635,0,0,0-2.183-4.116,7.928,7.928,0,0,0-3.071-1.485c-.012.021,0,.075.008.074l.144.126m4.55,2.1a3.751,3.751,0,0,1,.857,1.236,19.2,19.2,0,0,1,.616,2.712c.126.514.2.878.383,1.461.017.051-.038.075-.065.027l-.013-.02a8.008,8.008,0,0,0-2.38-1.969,5.514,5.514,0,0,1-1.55-1.39c-.078-.105-.158-.209-.237-.311a.1.1,0,0,0-.069-.02,1.065,1.065,0,0,0,.018.129,5.6,5.6,0,0,0,1.363,2.668c.558.534,1.186,1.006,1.781,1.5a15.084,15.084,0,0,1,2.086,2.168l.012.012s.047.03.047.014a.042.042,0,0,1,0-.014h0c-.015-.156-.021-.4-.021-.7,0-.651.03-1.521.059-2.121.011-.242.02-.486.018-.728a5.166,5.166,0,0,0-.386-2.124,4.942,4.942,0,0,0-2.327-2.543,1.183,1.183,0,0,0-.206-.078.136.136,0,0,0,.006.08.015.015,0,0,0,.008.009m1.27,7.985a9.73,9.73,0,0,1-1.6-1.78l-.009-.012a.136.136,0,0,0-.018-.014.09.09,0,0,0-.068-.014c-.02,0-.035,0-.035,0,.027.123.439,1.446.7,2.062a12.041,12.041,0,0,0,1.583,2.4c.042.056.084.11.126.167a13.326,13.326,0,0,1,1.735,3.3c.006.024.059.047.06.036.083-.305.458-1.491.737-2.291a22.561,22.561,0,0,0,.652-2.468,8.453,8.453,0,0,0-1.52-5.93c-.02.008-.036.059-.033.069.021.066.036.117.056.182.026.087.05.173.071.262A8.178,8.178,0,0,1,243.083,11a14.145,14.145,0,0,0-.24,2.611c.008.147.1,1.228.084,1.269s-.059.012-.065-.014c0-.008-.141-.4-.283-.732-.059-.143-.117-.278-.167-.376a5.916,5.916,0,0,0-1.825-2.019m2.259,9.318a.034.034,0,0,1-.021.024c-.027.008-.041-.026-.039-.033a5.773,5.773,0,0,0,.021-1.066,7.4,7.4,0,0,0-1.5-3.305,15.922,15.922,0,0,1-1.19-2.118c0-.006-.053-.038-.068-.03a6.82,6.82,0,0,0,.041.712,23.534,23.534,0,0,0,1.338,5.21,7.237,7.237,0,0,1,.467,3.293c-.014.1-.017.11.026.14,0,0,0,0,0,0,.4-.577,1.181-1.389,1.663-1.975a8.187,8.187,0,0,0,1.852-7.792,3,3,0,0,0-.2-.516c-.021,0-.056.053-.06.066.009,3-1.441,4.284-2.047,6.334-.114.391-.206.755-.286,1.057m2.8-.717a8.029,8.029,0,0,1-2.026,3.181,28.875,28.875,0,0,0-2.934,3.337c-.02.029-.071.017-.051-.036a8.648,8.648,0,0,0,.272-3.753c-.168-1.06-.631-2.216-.747-3.513,0-.008,0-.008,0-.014s-.035-.057-.054-.059a.75.75,0,0,0-.044.123,11.629,11.629,0,0,0-.547,2.575c-.057,1.057.143,2.417.056,3.507a9.511,9.511,0,0,1-.764,3.642.082.082,0,0,0-.006.018c-.012.032.02.087.02.087l.008,0c.463-.295,1.78-1.072,2.648-1.652a10.239,10.239,0,0,0,2.794-2.668,7.975,7.975,0,0,0,1.453-4.643,1.032,1.032,0,0,0-.011-.168c-.012,0-.063.032-.066.039M243.952,27a9.88,9.88,0,0,1-2.213,1.93,14.17,14.17,0,0,1-2.273,1.24,12.1,12.1,0,0,0-2.793,1.64c-.057.047-.1.081-.161.123-.032.024-.062-.015-.027-.054a7.663,7.663,0,0,0,1.718-4.164,16.2,16.2,0,0,1,.47-2.97.1.1,0,0,0-.021-.077s-.009,0-.011.006a12.909,12.909,0,0,0-2.1,3.819c-.26.744-.508,1.494-.777,2.235a7.117,7.117,0,0,1-1.617,2.718l-.069.074a.125.125,0,0,0-.014.045.014.014,0,0,0,.006.009c.111-.02.183-.03.256-.045.861-.179,1.718-.385,2.585-.529a8.457,8.457,0,0,0,3.884-1.653,9.217,9.217,0,0,0,2.809-3.287,6.148,6.148,0,0,0,.43-1.07.089.089,0,0,0-.081.011m-3.859,5.918a5.647,5.647,0,0,1-1.852.979,10.69,10.69,0,0,1-2.915.436,34.857,34.857,0,0,0-3.8.329l-.021,0c-.08.014-.116-.021-.09-.048a.053.053,0,0,1,.02-.012,4.684,4.684,0,0,0,2.482-2.4c.4-.764,1.058-2.256,1.24-2.5a.092.092,0,0,0-.012-.063c-.086.029-1.332,1.09-1.9,1.614-.7.652-1.363,1.35-2.065,2a7.721,7.721,0,0,1-3.247,1.656.115.115,0,0,0-.045.021.152.152,0,0,0-.029.051s0,.006,0,.008l.026.006c.443.1,1.724.379,2.381.555a16.264,16.264,0,0,0,3.071.571,7.376,7.376,0,0,0,6.836-3.2s0-.009,0-.011a.108.108,0,0,0-.086,0m-4.131,3.749a.086.086,0,0,1,.065.033,7.111,7.111,0,0,1-3.089,1.826,6.278,6.278,0,0,1-2.441.174,7.842,7.842,0,0,1-3.451-1.347c-.63-.415-1.255-.839-1.879-1.264a3.1,3.1,0,0,0-2.342-.442c-.451.05-.108.266-.039.3a18.351,18.351,0,0,1,3.155,1.963c.669.492,1.862,1.641,1.862,1.641l-.893.764s-.681-.762-.977-1.06a16.589,16.589,0,0,0-4.076-3.157.3.3,0,0,0-.4,0,16.588,16.588,0,0,0-4.076,3.157c-.3.3-.977,1.06-.977,1.06l-.894-.764s1.195-1.15,1.864-1.641a18.354,18.354,0,0,1,3.155-1.963c.069-.035.412-.251-.039-.3a3.1,3.1,0,0,0-2.342.442c-.624.425-1.249.849-1.88,1.264a7.828,7.828,0,0,1-3.451,1.347,6.273,6.273,0,0,1-2.44-.174,7.116,7.116,0,0,1-3.092-1.831.094.094,0,0,1,.068-.029c.074.033.12.057.192.095a6.158,6.158,0,0,0,4.1.478,13.646,13.646,0,0,0,2.764-.957c.645-.275,1.282-.579,1.945-.8a9.15,9.15,0,0,1,5.214-.117.608.608,0,0,0,.089.015.629.629,0,0,0,.09-.015,9.144,9.144,0,0,1,5.213.117c.664.218,1.3.522,1.947.8a13.649,13.649,0,0,0,2.764.957,6.159,6.159,0,0,0,4.1-.478c.072-.038.119-.062.192-.095" transform="translate(1504.604 5064.214)" fill="#009edb"/>
  </g>
</svg>
