<svg xmlns="http://www.w3.org/2000/svg" width="59.64" height="76.969" viewBox="0 0 59.64 76.969">
  <g id="Group_161" data-name="Group 161" transform="translate(-1979 -4761)">
    <g id="Group_160" data-name="Group 160" transform="translate(1980.051 4761)">
      <path id="Path_3613" data-name="Path 3613" d="M502.293,161.5a19.593,19.593,0,1,0,19.593,19.593A19.6,19.6,0,0,0,502.293,161.5m15.282,8.657a28.3,28.3,0,0,1-3.154,1.823,20.431,20.431,0,0,0-2.348-3.68,17.968,17.968,0,0,0,2.278-1.647,19.058,19.058,0,0,1,3.225,3.5m-8.237-6.519a17.591,17.591,0,0,1,4.381,2.524,15.956,15.956,0,0,1-2.173,1.507,20.073,20.073,0,0,0-3.225-2.979,5.755,5.755,0,0,0,1.016-1.051m1.507,4.451a19.223,19.223,0,0,1-3.295,1.367,27.438,27.438,0,0,0-1.647-3.19,9.2,9.2,0,0,0,1.788-1.051,20.646,20.646,0,0,1,3.154,2.874m-2.313-4.732a10.348,10.348,0,0,1-.876.876,18.808,18.808,0,0,0-3.295-1.823,20.081,20.081,0,0,1,4.171.946m-1.507,1.4a6.372,6.372,0,0,1-1.507.841,27.713,27.713,0,0,0-1.893-2.629,20.965,20.965,0,0,1,3.4,1.788m-4.311-1.647a26.772,26.772,0,0,1,2.033,2.769,7.973,7.973,0,0,1-2.033.35Zm0,3.926a8.218,8.218,0,0,0,2.453-.456,29.03,29.03,0,0,1,1.612,3.119,17.756,17.756,0,0,1-4.066.561Zm-.841-3.891v3.084a7.976,7.976,0,0,1-2-.35q.946-1.42,2-2.734M499.1,165.6a7.9,7.9,0,0,1-1.507-.841,19.611,19.611,0,0,1,3.4-1.788q-1,1.262-1.893,2.629m1.157-3.19a18.808,18.808,0,0,0-3.295,1.823c-.315-.28-.6-.6-.876-.876a16.769,16.769,0,0,1,4.171-.946m13.424,33.648c-2.594-1.437-2.664-3.4-2.524-4.136s.631-.421.981-.421c1.717,0,3.505-.491,5.748-2.769a8.728,8.728,0,0,0-.561-11.952c-4.136-4-8.552-3.295-11.391.28a4.357,4.357,0,0,1-3.225,1.227c-1.823-.07-.666,1.367-.666,1.682s-.28.526-.456.456c-.631-.175-.386.736-.386,1.016a.42.42,0,0,1-.385.421c-.771,0-.561.7-.526.876a.607.607,0,0,1-.315.631,1.656,1.656,0,0,0-.526,1.192c0,.841.771,1.4,2.033,2.348a2.975,2.975,0,0,1,1.437,2.489,7.356,7.356,0,0,0,.385,2.383,1.62,1.62,0,0,1-1.472,2.418c-2.138.07-5.958,1.823-6.309,1.928a7.653,7.653,0,0,1-4.066.28,16.465,16.465,0,0,1-1.928-1.577,2.951,2.951,0,0,1,.631-2.418,3.339,3.339,0,0,0,2.383.7,26.94,26.94,0,0,0,3.961-.561.986.986,0,0,1,.841,0c1.122.421,2.664.526,3.295-1.612s-.841-1.542-1.052-1.472c-.175.105-.456.07-.351-.105.28-.561-.14-.491-.386-.526-.6-.07-1.4.6-1.647.806a.582.582,0,0,1-.6.175c-.806-.386-3.19.175-3.926-1.122a42.546,42.546,0,0,0-.946-6.484.844.844,0,0,1,.105-.841c.6-.911,2.278.07,3.19.035a1.6,1.6,0,0,0,1.542-.841c.28-.35.491-.14.631-.245.21-.14,0-.386.07-.526s.14-.07.315-.245-.035-.526.07-.631c.28-.386.981-.07.561-1.122a1.709,1.709,0,0,1,.421-1.612c.526-.666,2.559-3.54-1.016-6.484-3.4-2.8-6.87-2.594-9.078-.175s-1.122,5.923-.876,6.835a1.96,1.96,0,0,1-1.192,2.138,17.787,17.787,0,0,0-3.049,2.138A18.793,18.793,0,0,1,495.213,163.6a9.407,9.407,0,0,0,.981,1.051c-.771.561-2.489,2.1-2.489,2.1a3.039,3.039,0,0,1,.456.105c.14.035.456.14.456.14s1.507-1.262,2.208-1.788a9.2,9.2,0,0,0,1.788,1.051c-.351.561-1.192,2.173-1.192,2.173a2.5,2.5,0,0,1,.386.245,1.589,1.589,0,0,1,.28.21s.946-1.752,1.3-2.348a9.495,9.495,0,0,0,2.453.456v3.225c-.456,0-1.647-.07-2.138-.105l-.315-.035.175.245c.14.175.21.386.315.526l.035.07h.07c.35.035,1.437.07,1.823.07v5.888h.806v-1.332c1.192-.07,2.208-.14,3.4-.245h.035l1.051-.946-.561.035c-1.262.175-2.383.245-3.4.315,0,0-.351.035-.526.035v-3.715a19.183,19.183,0,0,0,4.416-.631c.385.981,1.157,3.33,1.157,3.33l.771-.245s-.736-2.348-1.122-3.295a17.334,17.334,0,0,0,3.505-1.507,18.6,18.6,0,0,1,2.313,3.61,15.745,15.745,0,0,1-1.647.631,11.366,11.366,0,0,1,1.472.28s.315-.14.491-.21l.21.526,1.052.456-.14-.28s-.35-.841-.421-1.016a30.3,30.3,0,0,0,3.26-1.893,18.74,18.74,0,0,1,3.049,10.27,18.263,18.263,0,0,1-7.29,15" transform="translate(-473.552 -161.5)" fill="#009fe3"/>
      <path id="Path_3614" data-name="Path 3614" d="M470.7,175.845l-.315.28c-1.157,1.016-3.785,3.715-3.365,6.659l.035.21.14.6.35-.351a12.089,12.089,0,0,0,3.295-6.835l.14-.806Z" transform="translate(-463.337 -170.658)" fill="#009fe3"/>
      <path id="Path_3615" data-name="Path 3615" d="M460.647,190.251l-.14.35a13.924,13.924,0,0,0-.7,2.909,8.937,8.937,0,0,0,1.507,6.765l.175.245.21.245.245-1.262a24.581,24.581,0,0,0-.911-8.9l-.28-.7Z" transform="translate(-458.615 -179.946)" fill="#009fe3"/>
      <path id="Path_3616" data-name="Path 3616" d="M456.671,212.886l-.035.35c-.14,2-.035,6.87,3.926,9.463l.456.315-.035-.561c-.07-1.858-2.243-7.4-3.856-9.393l-.456-.561Z" transform="translate(-456.601 -194.625)" fill="#009fe3"/>
      <path id="Path_3617" data-name="Path 3617" d="M458.67,238.015l.07.35c.6,2.8,3.26,7.36,7.36,8.692l.561.175-.21-.561c-.771-2.1-4.732-7.01-7.29-8.622l-.561-.35Z" transform="translate(-457.899 -210.992)" fill="#009fe3"/>
      <path id="Path_3618" data-name="Path 3618" d="M473.587,188.01l-.315.21c-3.049,1.858-4.486,4.136-4.381,6.94l.035.631.456-.386a18.637,18.637,0,0,0,4.346-6.87l.21-.736Z" transform="translate(-464.579 -178.582)" fill="#009fe3"/>
      <path id="Path_3619" data-name="Path 3619" d="M471,205.51l-.245.21c-.771.736-3.33,3.435-3.084,6.8a6.046,6.046,0,0,0,.351,1.647l.175.526.315-.456c1.227-1.717,2.8-6.2,2.734-8.307l-.035-.631Z" transform="translate(-463.779 -189.948)" fill="#009fe3"/>
      <path id="Path_3620" data-name="Path 3620" d="M473.765,221.88l-.175.245a9.8,9.8,0,0,0-1.893,5.643,6.983,6.983,0,0,0,1.262,3.785l.28.386.21-.421c.561-1.052.981-4.416.911-7.08a8.789,8.789,0,0,0-.28-2.243l-.175-.6Z" transform="translate(-466.405 -200.535)" fill="#009fe3"/>
      <path id="Path_3621" data-name="Path 3621" d="M480.688,239.645l-.07.28a10.92,10.92,0,0,0-.526,3.575,7.059,7.059,0,0,0,3.4,6.029l.386.245.07-.491.035-.386c-.07-2.1-1.647-7.4-2.874-9.043l-.35-.456Z" transform="translate(-471.856 -212.096)" fill="#009fe3"/>
      <path id="Path_3622" data-name="Path 3622" d="M469.175,263.21l.175.28c1.647,2.769,4.451,6.344,9.674,5.433l.421-.07-.245-.35c-.981-1.437-7.325-5.047-9.569-5.4L469,263Z" transform="translate(-464.654 -227.424)" fill="#009fe3"/>
      <path id="Path_3623" data-name="Path 3623" d="M490.106,281.52h0l-.806.21.771.315c3.33,1.367,7.5,1.753,9.919.946a5.33,5.33,0,0,0,2.138-1.472c4.276.456,8.237,4,10.585,6.87l.14.14.175-.07a2.828,2.828,0,0,0,.841-.6l.175-.175-.14-.21a21.492,21.492,0,0,0-6.379-5.222c-3.47-1.577-9.5-2.874-17.42-.736" transform="translate(-477.839 -238.724)" fill="#009fe3"/>
      <path id="Path_3624" data-name="Path 3624" d="M492.1,257.88l.035.28c.491,3.155,1.788,7.255,7.08,6.8l.35-.035-.07-.315c-.351-1.437-5.222-5.573-6.9-6.73l-.491-.28Z" transform="translate(-479.658 -223.917)" fill="#009fe3"/>
      <path id="Path_3625" data-name="Path 3625" d="M599,175.6l.14.806a12.315,12.315,0,0,0,3.295,6.835l.386.351.14-.6.035-.21c.421-2.944-2.208-5.643-3.365-6.659l-.315-.28Z" transform="translate(-549.089 -170.658)" fill="#009fe3"/>
      <path id="Path_3626" data-name="Path 3626" d="M612.323,189.9l-.28.7a24.581,24.581,0,0,0-.911,8.9l.245,1.262.21-.245.175-.245a8.937,8.937,0,0,0,1.507-6.765,11.966,11.966,0,0,0-.7-2.909l-.14-.35Z" transform="translate(-556.91 -179.946)" fill="#009fe3"/>
      <path id="Path_3627" data-name="Path 3627" d="M612.546,212.6l-.456.561c-1.612,2-3.785,7.536-3.856,9.393l-.035.561.456-.315c3.961-2.594,4.066-7.5,3.925-9.463l-.035-.35Z" transform="translate(-555.065 -194.69)" fill="#009fe3"/>
      <path id="Path_3628" data-name="Path 3628" d="M603.961,237.6l-.561.351c-2.559,1.612-6.519,6.519-7.29,8.622l-.21.561.561-.175c4.1-1.332,6.765-5.888,7.361-8.692l.07-.35Z" transform="translate(-547.076 -210.927)" fill="#009fe3"/>
      <path id="Path_3629" data-name="Path 3629" d="M594.6,187.6l.21.736a17.962,17.962,0,0,0,4.206,6.94l.456.386.035-.631c.175-2.8-1.227-5.082-4.241-7.01l-.315-.21Z" transform="translate(-546.232 -178.452)" fill="#009fe3"/>
      <path id="Path_3630" data-name="Path 3630" d="M599.531,205.3l-.035.631c-.07,2.1,1.507,6.589,2.734,8.307l.315.456.175-.526a5.781,5.781,0,0,0,.351-1.647c.21-3.33-2.313-6.029-3.084-6.8l-.245-.21Z" transform="translate(-549.41 -189.948)" fill="#009fe3"/>
      <path id="Path_3631" data-name="Path 3631" d="M598.542,221.7l-.175.6a10.722,10.722,0,0,0-.28,2.243,20.928,20.928,0,0,0,.911,7.08l.21.421.28-.386a6.982,6.982,0,0,0,1.262-3.785,9.8,9.8,0,0,0-1.893-5.643l-.175-.245Z" transform="translate(-548.492 -200.6)" fill="#009fe3"/>
      <path id="Path_3632" data-name="Path 3632" d="M589.425,239.4l-.351.456c-1.227,1.612-2.8,6.94-2.874,9.043l.035.386.07.491.386-.245a6.982,6.982,0,0,0,3.4-6.029,10.793,10.793,0,0,0-.526-3.575l-.07-.28Z" transform="translate(-540.776 -212.096)" fill="#009fe3"/>
      <path id="Path_3633" data-name="Path 3633" d="M589.11,262.8l-.6.105c-2.243.35-8.587,3.961-9.569,5.4l-.245.351.421.07c5.257.911,8.026-2.664,9.674-5.433l.175-.28Z" transform="translate(-535.905 -227.295)" fill="#009fe3"/>
      <path id="Path_3634" data-name="Path 3634" d="M524.219,282.418a20.453,20.453,0,0,0-6.379,5.222l-.14.21.175.175a3.02,3.02,0,0,0,.841.6l.175.07.14-.14c2.313-2.909,6.309-6.449,10.585-6.87a5.33,5.33,0,0,0,2.138,1.472c2.418.806,6.589.421,9.919-.946l.806-.315-.806-.21c-7.991-2.243-14.055-.946-17.455.736" transform="translate(-496.285 -238.781)" fill="#009fe3"/>
      <path id="Path_3635" data-name="Path 3635" d="M571.666,257.6l-.491.28c-1.682,1.157-6.554,5.293-6.9,6.73l-.07.315.351.035c5.292.456,6.589-3.645,7.08-6.8l.035-.28Z" transform="translate(-526.487 -223.917)" fill="#009fe3"/>
    </g>
    <g id="Group_159" data-name="Group 159" transform="translate(1979 4819.603)">
      <path id="Path_3636" data-name="Path 3636" d="M198.8,165.4h2.728v2.485H198.8Zm.214,5.313H201.3v12.125H199V170.713Z" transform="translate(-173.55 -164.843)" fill="#009fe3"/>
      <path id="Path_3637" data-name="Path 3637" d="M30.14,202.7h2.3v12.125H30.2V213.04H30.14a4.578,4.578,0,0,1-4.156,2.142c-2.542,0-3.985-1.928-3.985-4.37V202.7h2.3v7.169c0,2.1.486,3.642,2.685,3.642a2.86,2.86,0,0,0,2.7-1.742,9.157,9.157,0,0,0,.457-2.856Z" transform="translate(-22 -196.816)" fill="#009fe3"/>
      <path id="Path_3638" data-name="Path 3638" d="M113.571,202.342h.043a4.2,4.2,0,0,1,3.67-2.142c.843,0,4.584.214,4.584,4.1v8.383h-2.3v-7.626c0-2-.843-3.085-2.771-3.085a3.163,3.163,0,0,0-2.228.9c-.343.343-.971.871-.971,3.242v6.6h-2.3V200.586h2.242v1.757Z" transform="translate(-98.547 -194.673)" fill="#009fe3"/>
      <path id="Path_3639" data-name="Path 3639" d="M236.283,204.527c-.114-1.514-.843-2.571-2.471-2.571-2.185,0-3.028,1.885-3.028,4.727s.843,4.727,3.028,4.727c1.514,0,2.442-.985,2.571-2.714h2.285a4.585,4.585,0,0,1-4.87,4.37c-3.856,0-5.4-2.728-5.4-6.284,0-3.528,1.771-6.484,5.6-6.484a4.29,4.29,0,0,1,4.57,4.227h-2.285Z" transform="translate(-198.923 -194.759)" fill="#009fe3"/>
      <path id="Path_3640" data-name="Path 3640" d="M309.9,207.127c-.171,2.114.7,4.3,3.028,4.3,1.771,0,2.671-.7,2.928-2.456h2.4c-.357,2.742-2.471,4.1-5.356,4.1-3.87,0-5.4-2.728-5.4-6.284,0-3.528,1.785-6.484,5.6-6.484,3.6.071,5.3,2.356,5.3,5.684v1.128h-8.5Zm6.084-1.585c.043-2.014-.871-3.57-3.071-3.57-1.9,0-3.028,1.6-3.028,3.57Z" transform="translate(-266.726 -194.759)" fill="#009fe3"/>
      <path id="Path_3641" data-name="Path 3641" d="M389.371,179.452V169H387.3v-1.585h2.071v-2.585c.071-2.642,2.057-3.328,3.77-3.328a8.963,8.963,0,0,1,1.628.243v1.9c-.386-.014-.771-.071-1.157-.071-1.3,0-2.042.343-1.971,1.657v2.214h2.785V169h-2.785v10.454Z" transform="translate(-335.13 -161.5)" fill="#009fe3"/>
    </g>
  </g>
</svg>
