<svg xmlns="http://www.w3.org/2000/svg" width="61.463" height="61.456" viewBox="0 0 61.463 61.456">
  <path id="Path_52" data-name="Path 52" d="M38.54,61.452H15.968c-.206-.255-.508-.437-.532-.823-.038-.6.376-.976,1.148-.977,3.041,0,6.083-.008,9.124.007.388,0,.5-.086.479-.489-.121-1.936-.211-3.874-.312-5.812-.181-3.456-.368-6.911-.541-10.367-.036-.724.278-1.122.838-1.147.586-.026.926.369.962,1.117.042.859.08,1.718.132,2.577.012.192-.1.487.262.492.344,0,.277-.294.3-.485.219-1.926.413-3.856.642-5.781a10.852,10.852,0,0,1,.981-4.288c.129-.225.024-.314-.129-.435a5.56,5.56,0,0,0-1.576-.843c-.97-.357-.971-.354-1.582.477a10.983,10.983,0,0,1-17.676-.337c-.141-.2-.228-.469-.59-.379a4.775,4.775,0,0,0-3.929,3.858c-.337,2.617-.608,5.242-.926,7.861-.049.4.176.361.421.36,1.241,0,2.481-.021,3.721.01.426.011.493-.161.5-.523.02-.86.078-1.718.121-2.577.037-.741.388-1.137.976-1.1.554.033.857.432.824,1.161-.087,1.9-.19,3.8-.29,5.693-.183,3.475-.358,6.951-.565,10.425-.029.491.14.55.556.535.839-.03,1.681,0,2.521-.012.521-.007.971.1,1.136.662s-.165.882-.6,1.143H3.242c-.121-.223-.364-.2-.558-.27A3.742,3.742,0,0,1,.462,59.094c-.176-.4-.309-.828-.462-1.243V55.81c.163-.045.117-.186.13-.294.131-1.152.255-2.3.387-3.457.509-4.428,1.119-8.847,1.5-13.286a6.793,6.793,0,0,1,5.738-6.627c1.224-.283,2.438-.614,3.656-.926.481-.123,1.105-.114,1.4-.419.332-.341.044-.99.122-1.5.09-.59-.2-.853-.674-1.151a9.737,9.737,0,0,1-4.8-7.977.7.7,0,0,0-.553-.743,3.084,3.084,0,0,1-2.046-4.182,3.012,3.012,0,0,0,.3-1.429c-.014-.68-.014-1.361.009-2.04A11.739,11.739,0,0,1,6.205,7.26,12.47,12.47,0,0,1,19.966.25a12.315,12.315,0,0,1,9.623,10.573c.145,1.626-.127,3.268.512,4.9.6,1.531-.472,3.151-2.16,3.709a.663.663,0,0,0-.548.7,9.187,9.187,0,0,1-4.126,7.537,2.548,2.548,0,0,0-1.306,2.76c.038.341.121.47.454.548,1.457.342,2.907.71,4.357,1.08A8.66,8.66,0,0,1,30.515,33.7c.221.194.345.072.5-.059a7.226,7.226,0,0,1,2.839-1.36c1.312-.345,2.632-.658,3.943-1.009.556-.149,1.338-.075,1.611-.494s.044-1.124.093-1.7a.778.778,0,0,0-.5-.832,9.1,9.1,0,0,1-3.848-4.072c-.27-.568-.492-1.159-.759-1.8a5.831,5.831,0,0,0-.789,2.737c-.023.939.036,1.88.006,2.818a1.826,1.826,0,0,1-2,1.77,22.515,22.515,0,0,1-2.7-.556,2.271,2.271,0,0,1-1.6-2.87,16.791,16.791,0,0,1,3.621-6.744.83.83,0,0,0,.295-.5,5.116,5.116,0,0,0-.033-2.828,1.664,1.664,0,0,1-.045-.653c0-.86.018-1.72.014-2.581a12.47,12.47,0,0,1,3.963-9.317A12.687,12.687,0,0,1,51.457,2.38c.783.556.978,1.056.608,1.557s-.85.474-1.627-.074A10.651,10.651,0,0,0,46.3,2.057,11.093,11.093,0,0,0,34.06,8.073a10.372,10.372,0,0,0-1.079,5.142A5.788,5.788,0,0,0,34.4,12.7a1.945,1.945,0,0,1,1.463-.348c.416.055.831.132,1.249.155,2.16.122,4.1-.311,5.445-2.208a1.647,1.647,0,0,1,2.969.024,4.913,4.913,0,0,0,2.334,1.8,7.829,7.829,0,0,0,3.958.284c.509-.074,1.075-.257,1.512.094.528.425,1.186.406,1.762.759a10.391,10.391,0,0,0-.164-2.354,11.5,11.5,0,0,0-1.4-3.734c-.391-.691-.186-1.315.475-1.475a.935.935,0,0,1,1.073.565c1.939,3.171,2.1,6.673,1.688,10.2a17.11,17.11,0,0,0,.026,2.657c.006.16.127.241.221.34a16.892,16.892,0,0,1,3.668,6.72,2.309,2.309,0,0,1-1.657,2.99,21.911,21.911,0,0,1-2.163.47,1.923,1.923,0,0,1-2.473-2.15,19.063,19.063,0,0,0,0-2.757,5.213,5.213,0,0,0-.75-2.278,9.036,9.036,0,0,1-3.811,5.258,2.365,2.365,0,0,0-1.3,2.635c.047.366.092.545.5.638,1.575.36,3.139.772,4.7,1.171,3.751.954,5.322,2.792,5.723,6.631.267,2.564.572,5.125.859,7.688.379,3.377.785,6.751,1.124,10.132a4.322,4.322,0,0,1-1.539,3.964,7.205,7.205,0,0,1-1.9.883H42.142c-.3-.281-.648-.535-.559-1.03.093-.522.458-.77,1.175-.77,3.162,0,6.323-.008,9.485.008.395,0,.535-.048.509-.5-.3-5.313-.575-10.627-.857-15.94-.047-.879.2-1.311.8-1.367.627-.059.933.326,1,1.253a.383.383,0,0,1,0,.06c-.032.374.11.491.489.4,1.163-.286,2.33-.559,3.5-.808.3-.065.38-.16.339-.473-.128-.971-.206-1.948-.319-2.921a8.915,8.915,0,0,0-.546-2.688,5.156,5.156,0,0,0-3.771-2.753c-.419-.113-.511,0-.566.377a8.038,8.038,0,0,1-1.648,3.864,8.939,8.939,0,0,1-15.864-3.384c-.263-1.007-.226-1.019-1.251-.692a4.637,4.637,0,0,0-3.592,4.157c-.11,1.074-.23,2.146-.349,3.219-.136,1.219-.138,1.221,1.062,1.488,1.039.231,2.078.457,3.144.69.018-.318.021-.557.048-.795.075-.672.419-1.023.963-1s.856.417.828,1.1c-.054,1.339-.123,2.678-.194,4.016-.218,4.075-.433,8.15-.67,12.224-.024.419.114.493.487.479.719-.027,1.441,0,2.161-.011.52-.011.977.091,1.158.642s-.161.881-.568,1.163m5.494-50.113a6.492,6.492,0,0,1-3.7,2.63,10.877,10.877,0,0,1-3.98.274c-.419-.039-.555.027-.549.468.018,1.42-.032,2.84,0,4.259a10.8,10.8,0,0,0,.4,3.02A8.182,8.182,0,0,0,52.15,20.6c.218-2.031.043-4.077.089-6.115.008-.333-.173-.264-.379-.245a11.589,11.589,0,0,1-3.7-.151,6.5,6.5,0,0,1-4.127-2.746m-34.8,3.338C9.224,16.5,9.158,18.3,9.252,20.1a8.184,8.184,0,0,0,16.341-.069c.092-1.816.021-3.639.047-5.459,0-.343-.178-.443-.434-.537A5.758,5.758,0,0,1,22.8,12.309c-.385-.451-.73-.936-1.069-1.375-3.324,4.045-7.649,4.7-12.492,3.742M7,13.324a1.48,1.48,0,0,0,.949-.287,1.419,1.419,0,0,1,1.3-.242,12.982,12.982,0,0,0,5.044.4,8.016,8.016,0,0,0,6.053-3.612,1.481,1.481,0,0,1,2.725.046c.885,1.881,2.686,2.565,4.232,3.6a.606.606,0,0,0,.169.058c.28.081.414.058.429-.316A10.484,10.484,0,1,0,7,13.324M33.874,52.554h-.009c.116-2.136.221-4.273.357-6.408.031-.491-.055-.732-.612-.824-1.061-.175-2.1-.458-3.156-.694-.719-.162-.709-.159-.79.586-.182,1.689-.377,3.376-.563,5.064-.238,2.165-.5,4.328-.7,6.5-.152,1.6.637,2.694,2.068,2.833.912.089,1.838.023,2.758.049.336.01.27-.207.281-.394q.184-3.354.367-6.708m20.321-.1H54.2c.113,2.236.232,4.471.334,6.708.016.36.1.527.513.5.778-.042,1.56.009,2.338-.025a2.184,2.184,0,0,0,2.188-1.845,3.849,3.849,0,0,0,.039-1.369c-.063-.556-.121-1.112-.183-1.668-.365-3.3-.735-6.591-1.091-9.888-.036-.332-.166-.394-.463-.325q-1.835.43-3.676.836c-.28.062-.383.171-.364.484.133,2.195.242,4.391.358,6.586M7.2,53.659h0c.092-1.8.174-3.593.285-5.388.022-.349-.07-.447-.414-.443-1.3.017-2.6.011-3.9,0-.261,0-.389.06-.42.356-.3,2.92-.651,5.836-.93,8.758a2.327,2.327,0,0,0,2.476,2.7c.7.011,1.4-.027,2.1.011.4.022.506-.122.522-.492.081-1.837.183-3.673.277-5.509M44.028,36.992a4,4,0,0,0,4.019-4.037c0-.174.04-.354-.21-.428-.862-.255-1.047-.96-1.1-1.731a7.685,7.685,0,0,1,0-1.079c.029-.383-.068-.471-.466-.375a9.09,9.09,0,0,1-4.038.09c-.942-.2-.937-.2-.943.8a7.118,7.118,0,0,1-.046,1.016,1.411,1.411,0,0,1-.966,1.255c-.308.095-.28.284-.278.5a4.036,4.036,0,0,0,4.024,3.991M21.385,32.575a1.636,1.636,0,0,1-1.206-1.7,11.651,11.651,0,0,1,0-1.258c.016-.3-.08-.385-.372-.311a9.459,9.459,0,0,1-4.735.013c-.279-.071-.353.016-.344.283.014.4.015.8,0,1.2a1.68,1.68,0,0,1-1.19,1.78,5.8,5.8,0,0,0,7.846,0m22.647,7.382a7.181,7.181,0,0,0,7.074-6.107c.141-.872-.581-.567-.927-.709-.509-.21-.341.283-.364.49a5.79,5.79,0,0,1-8.487,4.477A5.52,5.52,0,0,1,38.26,33.55c-.015-.162.033-.459-.172-.45a2.554,2.554,0,0,0-1.034.262c-.242.126-.074.439-.04.654a7.155,7.155,0,0,0,7.019,5.94M24.809,33.421a5.537,5.537,0,0,1-.855-.215c-.365-.157-.572-.015-.818.246a7.663,7.663,0,0,1-10.913.409,1.7,1.7,0,0,0-2.014-.472c-.03.012-.049.051-.073.078a9.106,9.106,0,0,0,14.674-.046m31.117-12.5c0,.5-.827.371-.49,1.044a9.022,9.022,0,0,1,.786,4.666c-.079,1.328-.088,1.328,1.192,1.067,1.8-.366,1.8-.369,1.152-2.1a15.18,15.18,0,0,0-2.64-4.673M32,21.042a16.787,16.787,0,0,0-2.924,5.634c-.14.411.073.7.5.8.466.105.937.192,1.405.29.964.2.91.322.853-.718a9.962,9.962,0,0,1,.562-4.587c.359-.835.354-.837-.4-1.414m-4.56-5.872v.439c0,.579.009,1.158,0,1.736-.009.421.189.3.39.162a1.242,1.242,0,0,0,.625-1.15,1.4,1.4,0,0,0-1.012-1.186M7.429,16.45c0-.3.006-.6,0-.893,0-.107.068-.253-.076-.314-.125-.053-.223.055-.318.116a1.206,1.206,0,0,0-.207,1.971c.153.146.319.375.542.268.152-.073.051-.323.06-.494.012-.218,0-.437,0-.655m46.632.847a1.35,1.35,0,0,0,1-1.282,1.318,1.318,0,0,0-1-1.224ZM34,17.269c.008-.149.017-.247.018-.346,0-.576,0-1.153,0-1.729,0-.111.053-.26-.067-.323-.147-.077-.261.06-.368.135-.891.624-.713,1.729.419,2.263m20.057,2.908a1.258,1.258,0,0,0,.9-1.242c-.953.31-.953.31-.9,1.242M34,20.138c.077-1.012.077-1.012-.948-1.162A2.117,2.117,0,0,0,34,20.138" transform="translate(0 0.003)" fill="#079bbb"/>
</svg>
