<svg xmlns="http://www.w3.org/2000/svg" width="20.862" height="17.069" viewBox="0 0 20.862 17.069">
  <path id="email_mail_inbox_message" data-name="email, mail, inbox, message" d="M20.914,3H1.948A.948.948,0,0,0,1,3.948V19.121a.948.948,0,0,0,.948.948H20.914a.948.948,0,0,0,.948-.948V3.948A.948.948,0,0,0,20.914,3Zm-.948,15.173H2.9V9.142l8.182,3.273a.958.958,0,0,0,.706,0l8.182-3.273Zm0-11.073-8.535,3.414L2.9,7.1V4.9H19.966Z" transform="translate(-1 -3)" fill="#b8b8b8"/>
</svg>
