<svg id="Twitter_logo" data-name="Twitter, logo" xmlns="http://www.w3.org/2000/svg" width="22.759" height="22.759" viewBox="0 0 22.759 22.759">
  <path id="Path_16" data-name="Path 16" d="M30.862,14.741a4.741,4.741,0,1,0-9.483,0v2.845a13.247,13.247,0,0,1-10.2-4.786,12.974,12.974,0,0,0,3.878,15.629A7.546,7.546,0,0,1,10,30.37,13.267,13.267,0,0,0,30.862,19.483V16.638l1.9-1.9Zm-1.9,4.741a11.382,11.382,0,0,1-13.658,11.15,9.664,9.664,0,0,0,1.011-.791l1.7-1.521-1.8-1.393a11.017,11.017,0,0,1-4.149-10.643,15.125,15.125,0,0,0,9.316,3.2h1.9V14.741a2.845,2.845,0,0,1,5.69,0v4.741Z" transform="translate(-10 -10)" fill="#fff"/>
  <path id="Path_17" data-name="Path 17" d="M66.9,24.282a.948.948,0,1,1-.949-.948A.949.949,0,0,1,66.9,24.282Z" transform="translate(-49.353 -19.541)" fill="#fff"/>
</svg>
