<svg xmlns="http://www.w3.org/2000/svg" width="19.984" height="13.044" viewBox="0 0 19.984 13.044">
  <path id="Path_51" data-name="Path 51" d="M17.153,22.766,22.7,17.176a.885.885,0,0,0,0-1.3L17.153,10.28a.978.978,0,0,0-1.258-.093.885.885,0,0,0-.093,1.4l4.007,4.007H3.932a.932.932,0,0,0,0,1.864H19.809L15.8,21.462a.885.885,0,0,0,.093,1.4A.978.978,0,0,0,17.153,22.766Z" transform="translate(-3 -10.001)" fill="#fcbc45"/>
</svg>
