<svg xmlns="http://www.w3.org/2000/svg" width="62" height="62" viewBox="0 0 62 62">
  <g id="Group_59" data-name="Group 59" transform="translate(0.325)">
    <circle id="Ellipse_10" data-name="Ellipse 10" cx="31" cy="31" r="31" transform="translate(-0.325)" fill="#079bbb"/>
    <g id="volunteer_charity_community_compassion" data-name="volunteer, charity, community, compassion" transform="translate(19 17)">
      <path id="Path_316" data-name="Path 316" d="M43.712,70.067,43.342,70a1.781,1.781,0,0,0-1.109.47l-.874.706-.874-.706A1.781,1.781,0,0,0,39.378,70l-.37.067A1.917,1.917,0,0,0,38,72.016c0,1.949,1.646,3.83,3.36,4.7,1.714-.874,3.36-2.755,3.36-4.7A1.917,1.917,0,0,0,43.712,70.067Z" transform="translate(-29.264 -48.497)" fill="#fff"/>
      <ellipse id="Ellipse_105" data-name="Ellipse 105" cx="7" cy="6.5" rx="7" ry="6.5" transform="translate(4.675)" fill="#fff"/>
      <path id="Path_317" data-name="Path 317" d="M26.784,50H21.408A9.408,9.408,0,0,0,12,59.408,2.688,2.688,0,0,0,14.688,62.1h5.88a5.745,5.745,0,0,1-1.176-3.36,3.187,3.187,0,0,1,1.882-3.192,2.486,2.486,0,0,1,.84-.168,3.158,3.158,0,0,1,1.982.773h0a3.158,3.158,0,0,1,1.982-.773,2.486,2.486,0,0,1,.84.168A3.187,3.187,0,0,1,28.8,58.736a5.745,5.745,0,0,1-1.176,3.36H33.5a2.688,2.688,0,0,0,2.688-2.688A9.408,9.408,0,0,0,26.784,50Z" transform="translate(-12 -35.216)" fill="#fff"/>
    </g>
  </g>
</svg>
