<svg id="Layer_2" data-name="Layer 2" xmlns="http://www.w3.org/2000/svg" width="43" height="43" viewBox="0 0 43 43">
  <g id="invisible_box" data-name="invisible box">
    <rect id="Rectangle_147" data-name="Rectangle 147" width="43" height="43" fill="none"/>
  </g>
  <g id="icons_Q2" data-name="icons Q2" transform="translate(1.917 1.916)">
    <g id="Group_23" data-name="Group 23">
      <path id="Path_43" data-name="Path 43" d="M33.867,22.4,18.054,13.184c-.575-.365-1.054-.091-1.054.548V32.353c0,.639.479.913,1.054.548l15.812-9.219a.714.714,0,0,0,0-1.278Z" transform="translate(-4.357 -3.459)" fill="#fff"/>
      <path id="Path_44" data-name="Path 44" d="M21.583,2A19.494,19.494,0,1,0,35.457,7.71,19.583,19.583,0,0,0,21.583,2Zm0,35.606A16.023,16.023,0,1,1,37.606,21.583,16.023,16.023,0,0,1,21.583,37.606Z" transform="translate(-2 -2)" fill="#fff"/>
    </g>
  </g>
</svg>
